{
  "main": {
    "id": "61912980070ba494",
    "type": "split",
    "children": [
      {
        "id": "eb500ea683d8a5c4",
        "type": "tabs",
        "children": [
          {
            "id": "86f4edddb36fa54f",
            "type": "leaf",
            "state": {
              "type": "markdown",
              "state": {
                "file": "00 - Maps of Content/placeholder.md",
                "mode": "source",
                "source": false
              }
            }
          }
        ]
      }
    ],
    "direction": "vertical"
  },
  "left": {
    "id": "7b4559115118e0c1",
    "type": "split",
    "children": [
      {
        "id": "801420b175c125bc",
        "type": "tabs",
        "children": [
          {
            "id": "498aa7bb11f1dd72",
            "type": "leaf",
            "state": {
              "type": "file-explorer",
              "state": {
                "sortOrder": "alphabetical"
              }
            }
          },
          {
            "id": "8c94962d2c8b88d3",
            "type": "leaf",
            "state": {
              "type": "search",
              "state": {
                "query": "tp.user.hebdate(false)",
                "matchingCase": false,
                "explainSearch": false,
                "collapseAll": false,
                "extraContext": false,
                "sortOrder": "alphabetical"
              }
            }
          },
          {
            "id": "7904977ed77c8d6e",
            "type": "leaf",
            "state": {
              "type": "bookmarks",
              "state": {}
            }
          },
          {
            "id": "0ed094e9e6425286",
            "type": "leaf",
            "state": {
              "type": "recent-files",
              "state": {}
            }
          }
        ]
      }
    ],
    "direction": "horizontal",
    "width": 289.5
  },
  "right": {
    "id": "90cd8dd44545f91e",
    "type": "split",
    "children": [
      {
        "id": "fa74fe9dcd300e73",
        "type": "tabs",
        "children": [
          {
            "id": "f89a4ff453e3a0eb",
            "type": "leaf",
            "state": {
              "type": "backlink",
              "state": {
                "file": "00 - Maps of Content/placeholder.md",
                "collapseAll": false,
                "extraContext": false,
                "sortOrder": "alphabetical",
                "showSearch": false,
                "searchQuery": "",
                "backlinkCollapsed": false,
                "unlinkedCollapsed": true
              }
            }
          },
          {
            "id": "47b530c54192fcbe",
            "type": "leaf",
            "state": {
              "type": "outgoing-link",
              "state": {
                "file": "00 - Maps of Content/placeholder.md",
                "linksCollapsed": false,
                "unlinkedCollapsed": true
              }
            }
          },
          {
            "id": "e0add6c36da67bb9",
            "type": "leaf",
            "state": {
              "type": "tag",
              "state": {
                "sortOrder": "frequency",
                "useHierarchy": true
              }
            }
          },
          {
            "id": "a353c85e6ee14626",
            "type": "leaf",
            "state": {
              "type": "all-properties",
              "state": {
                "sortOrder": "frequency",
                "showSearch": false,
                "searchQuery": ""
              }
            }
          },
          {
            "id": "f5c8c3dc73d825f8",
            "type": "leaf",
            "state": {
              "type": "outline",
              "state": {
                "file": "00 - Maps of Content/placeholder.md"
              }
            }
          },
          {
            "id": "8cd846275f7fa3c2",
            "type": "leaf",
            "state": {
              "type": "calendar",
              "state": {}
            }
          }
        ]
      }
    ],
    "direction": "horizontal",
    "width": 300,
    "collapsed": true
  },
  "left-ribbon": {
    "hiddenItems": {
      "switcher:Open quick switcher": true,
      "command-palette:Open command palette": true,
      "graph:Open graph view": false,
      "daily-notes:Open today's daily note": false,
      "zk-prefixer:Create new unique note": false,
      "canvas:Create new canvas": false,
      "audio-recorder:Start/stop recording": false,
      "templates:Insert template": true,
      "obsidian-spaced-repetition:Review flashcards": false,
      "obsidian-importer:Open Importer": false,
      "obsidian-excalidraw-plugin:Create new drawing": false,
      "templater-obsidian:Templater": false,
      "homepage:Open homepage": false
    }
  },
  "active": "86f4edddb36fa54f",
  "lastOpenFiles": [
    "06 - Daily/20240626.md",
    "00 - Maps of Content/placeholder.md",
    "04 - Permanent/שיעורים/שיעור ראש הישיבה הגות 5784-9-20.md",
    "05 - Fleeting/Untitled.canvas",
    "05 - Fleeting/202406251134 - שיחה עם רבי ידידיה על הגוש.md",
    "05 - Fleeting/202406251050 - בירור גיוס לגאמא.md",
    "99 - Meta/00 - Templates/(TEMPLATE) שיעור רבי ידידיה.md",
    "99 - Meta/00 - Templates/(TEMPLATE) שיעור ראש הישיבה.md",
    "02 - Areas/Yeshiva/רבי יהונתן מלוניל.md",
    "02 - Areas/Yeshiva/קב ונקי.md",
    "02 - Areas/Yeshiva/כיצד בעל תשובה.md",
    "02 - Areas/Yeshiva/וידוי.md",
    "99 - Meta/00 - Templates/(TEMPLATE) Daily.md",
    "06 - Daily/20240625.md",
    "04 - Permanent/שיעורים/שיעור ראש הישיבה עיון 5784-9-20-1728.md",
    "06 - Daily/20240624.md",
    "03 - Resources/מקורות לשיעורים/עם-ישראל-והפילוסופיה-היוונית-שיעור-רהי-יח-סיוון.jpg",
    "01 - Projects/placeholder.md",
    "00 - Maps of Content/placeholder",
    "01 - Projects/placeholder",
    "00 - Maps of Content",
    "01 - Projects",
    "06 - Daily/Untitled 1.md",
    "99 - Meta/00 - Templates/Untitled.md",
    "99 - Meta/00 - Templates/(TEMPLATE) Unique.md",
    "05 - Fleeting/202406261157.md",
    "05 - Fleeting/202406261156.md",
    "99 - Meta/00 - Templates/(TEMPLATE) שיעור רבי עדיאל.md",
    "99 - Meta/00 - Templates/(TEMPLATE) שיעור רבי יוסי בנין הנפש.md",
    "99 - Meta/00 - Templates/(TEMPLATE) שיעור רבי יוסי אוהק.md",
    "99 - Meta/00 - Templates/(TEMPLATE) שיעור רבי יוסי.md",
    "99 - Meta/Scripts/move_or_open.js",
    "99 - Meta/Scripts",
    "03 - Resources/הקלטות שיעורים/שיעור רבי יוסי קורט אוהק יח סיוון.webm",
    "03 - Resources/הקלטות שיעורים",
    "03 - Resources/מקורות לשיעורים",
    "Recording 20240624220023.webm",
    "03 - Resources/IMG_20240624_184244.jpg"
  ]
}